cesga/2020 unloaded
        Preparing the environment for use of the CESGA 2020 software stack.
        Please rebuild modules cache: module --ignore-cache avail
     
cesga/2020 loaded
gcccore/system loaded
gcc/system loaded
openblas/0.3.25 loaded
openblas/0.3.25 unloaded
gcc/system unloaded
gcccore/system unloaded
cesga/2020 unloaded
        Preparing the environment for use of the CESGA 2020 software stack.
        Please rebuild modules cache: module --ignore-cache avail
     
cesga/2020 loaded
gcccore/system loaded
intel/2021.3.0 loaded

imkl/2021.3.0 loaded
imkl/2021.3.0 unloaded
gcccore/system unloaded
intel/2021.3.0 unloaded
cesga/2020 unloaded
        Preparing the environment for use of the CESGA 2020 software stack.
        Please rebuild modules cache: module --ignore-cache avail
     
cesga/2020 loaded
gcccore/system loaded
gcc/system loaded
openblas/0.3.25 loaded
openblas/0.3.25 unloaded
gcc/system unloaded
gcccore/system unloaded
cesga/2020 unloaded
        Preparing the environment for use of the CESGA 2020 software stack.
        Please rebuild modules cache: module --ignore-cache avail
     
cesga/2020 loaded
gcccore/system loaded
intel/2021.3.0 loaded

imkl/2021.3.0 loaded
imkl/2021.3.0 unloaded
gcccore/system unloaded
intel/2021.3.0 unloaded
cesga/2020 unloaded
        Preparing the environment for use of the CESGA 2020 software stack.
        Please rebuild modules cache: module --ignore-cache avail
     
cesga/2020 loaded
gcccore/system loaded
gcc/system loaded
openblas/0.3.25 loaded
openblas/0.3.25 unloaded
gcc/system unloaded
gcccore/system unloaded
cesga/2020 unloaded
        Preparing the environment for use of the CESGA 2020 software stack.
        Please rebuild modules cache: module --ignore-cache avail
     
cesga/2020 loaded
gcccore/system loaded
intel/2021.3.0 loaded

imkl/2021.3.0 loaded
imkl/2021.3.0 unloaded
gcccore/system unloaded
intel/2021.3.0 unloaded
cesga/2020 unloaded
        Preparing the environment for use of the CESGA 2020 software stack.
        Please rebuild modules cache: module --ignore-cache avail
     
cesga/2020 loaded
gcccore/system loaded
gcc/system loaded
openblas/0.3.25 loaded
openblas/0.3.25 unloaded
gcc/system unloaded
gcccore/system unloaded
cesga/2020 unloaded
        Preparing the environment for use of the CESGA 2020 software stack.
        Please rebuild modules cache: module --ignore-cache avail
     
cesga/2020 loaded
gcccore/system loaded
intel/2021.3.0 loaded

imkl/2021.3.0 loaded
