slurmstepd: info: Setting TMPDIR to /scratch/5391432. Previous errors about TMPDIR can be discarded
############################
# GCC non-optimized
Using OpenBLAS
rm -f dgesv *.o *~
Using OpenBLAS
gcc -O0 -DOPENBLAS   -c -o dgesv.o dgesv.c
gcc -O0 -DOPENBLAS   -c -o timer.o timer.c
gcc -O0 -DOPENBLAS   -c -o main.o main.c
gcc -O0 -DOPENBLAS -o dgesv dgesv.o timer.o main.o -lopenblas
Time taken by Lapacke dgesv (32): 79 ms
Time taken by my dgesv solver (32): 2 ms
Result is ok!
Time taken by Lapacke dgesv (64): 1 ms
Time taken by my dgesv solver (64): 31 ms
Result is ok!
Time taken by Lapacke dgesv (128): 2 ms
Time taken by my dgesv solver (128): 475 ms
Result is ok!
Time taken by Lapacke dgesv (256): 5 ms
Time taken by my dgesv solver (256): 7523 ms
Result is ok!
Time taken by Lapacke dgesv (512): 17 ms
Time taken by my dgesv solver (512): 119206 ms
Result is ok!
############################
############################
# ICX non-optimized
Using OpenBLAS
rm -f dgesv *.o *~
Using Intel MKL
icx -O0 -DIMKL   -c -o dgesv.o dgesv.c
icx -O0 -DIMKL   -c -o timer.o timer.c
icx -O0 -DIMKL   -c -o main.o main.c
icx -O0 -DIMKL -o dgesv dgesv.o timer.o main.o -qmkl=sequential -lmkl_intel_lp64
Time taken by Lapacke dgesv (32): 21 ms
Time taken by my dgesv solver (32): 1 ms
Result is ok!
Time taken by Lapacke dgesv (64): 4 ms
Time taken by my dgesv solver (64): 24 ms
Result is ok!
Time taken by Lapacke dgesv (128): 3 ms
Time taken by my dgesv solver (128): 381 ms
Result is ok!
Time taken by Lapacke dgesv (256): 5 ms
Time taken by my dgesv solver (256): 6181 ms
Result is ok!
Time taken by Lapacke dgesv (512): 15 ms
Time taken by my dgesv solver (512): 97270 ms
Result is ok!
############################
############################
# GCC optimized
Using OpenBLAS
rm -f dgesv *.o *~
Using OpenBLAS
gcc -O3 -DCC_OPT -DOPENBLAS   -c -o dgesv.o dgesv.c
gcc -O3 -DCC_OPT -DOPENBLAS   -c -o timer.o timer.c
gcc -O3 -DCC_OPT -DOPENBLAS   -c -o main.o main.c
gcc -O3 -DCC_OPT -DOPENBLAS -o dgesv dgesv.o timer.o main.o -lopenblas
Time taken by Lapacke dgesv (32): 1 ms
Time taken by my dgesv solver (32): 0 ms
Result is ok!
Time taken by Lapacke dgesv (64): 1 ms
Time taken by my dgesv solver (64): 4 ms
Result is ok!
Time taken by Lapacke dgesv (128): 2 ms
Time taken by my dgesv solver (128): 53 ms
Result is ok!
Time taken by Lapacke dgesv (256): 8 ms
Time taken by my dgesv solver (256): 814 ms
Result is ok!
Time taken by Lapacke dgesv (512): 18 ms
Time taken by my dgesv solver (512): 13975 ms
Result is ok!
############################
############################
# ICX optimized
Using OpenBLAS
rm -f dgesv *.o *~
Using Intel MKL
icx -O3 -DCC_OPT -DIMKL   -c -o dgesv.o dgesv.c
icx -O3 -DCC_OPT -DIMKL   -c -o timer.o timer.c
icx -O3 -DCC_OPT -DIMKL   -c -o main.o main.c
icx -O3 -DCC_OPT -DIMKL -o dgesv dgesv.o timer.o main.o -qmkl=sequential -lmkl_intel_lp64
Time taken by Lapacke dgesv (32): 3 ms
Time taken by my dgesv solver (32): 0 ms
Result is ok!
Time taken by Lapacke dgesv (64): 2 ms
Time taken by my dgesv solver (64): 3 ms
Result is ok!
Time taken by Lapacke dgesv (128): 3 ms
Time taken by my dgesv solver (128): 46 ms
Result is ok!
Time taken by Lapacke dgesv (256): 5 ms
Time taken by my dgesv solver (256): 694 ms
Result is ok!
Time taken by Lapacke dgesv (512): 14 ms
Time taken by my dgesv solver (512): 11713 ms
Result is ok!
############################
############################
# GCC all optimizations
Using OpenBLAS
rm -f dgesv *.o *~
Using OpenBLAS
gcc -march=native -mtune=native -O3 -DCC_OPT -DFUNC_OPT -DOPENBLAS   -c -o dgesv.o dgesv.c
gcc -march=native -mtune=native -O3 -DCC_OPT -DFUNC_OPT -DOPENBLAS   -c -o timer.o timer.c
gcc -march=native -mtune=native -O3 -DCC_OPT -DFUNC_OPT -DOPENBLAS   -c -o main.o main.c
gcc -march=native -mtune=native -O3 -DCC_OPT -DFUNC_OPT -DOPENBLAS -o dgesv dgesv.o timer.o main.o -lopenblas
Time taken by Lapacke dgesv (32): 1 ms
Time taken by my dgesv solver (32): 0 ms
Result is ok!
Time taken by Lapacke dgesv (64): 3 ms
Time taken by my dgesv solver (64): 3 ms
Result is ok!
Time taken by Lapacke dgesv (128): 2 ms
Time taken by my dgesv solver (128): 46 ms
Result is ok!
Time taken by Lapacke dgesv (256): 6 ms
Time taken by my dgesv solver (256): 841 ms
Result is ok!
Time taken by Lapacke dgesv (512): 15 ms
Time taken by my dgesv solver (512): 13247 ms
Result is ok!
############################
############################
# ICX all optimizations
Using OpenBLAS
rm -f dgesv *.o *~
Using Intel MKL
icx -march=native -mtune=native -O3 -DCC_OPT -DFUNC_OPT -DIMKL   -c -o dgesv.o dgesv.c
icx -march=native -mtune=native -O3 -DCC_OPT -DFUNC_OPT -DIMKL   -c -o timer.o timer.c
icx -march=native -mtune=native -O3 -DCC_OPT -DFUNC_OPT -DIMKL   -c -o main.o main.c
icx -march=native -mtune=native -O3 -DCC_OPT -DFUNC_OPT -DIMKL -o dgesv dgesv.o timer.o main.o -qmkl=sequential -lmkl_intel_lp64
Time taken by Lapacke dgesv (32): 3 ms
Time taken by my dgesv solver (32): 0 ms
Result is ok!
Time taken by Lapacke dgesv (64): 3 ms
Time taken by my dgesv solver (64): 2 ms
Result is ok!
Time taken by Lapacke dgesv (128): 3 ms
Time taken by my dgesv solver (128): 30 ms
Result is ok!
Time taken by Lapacke dgesv (256): 4 ms
Time taken by my dgesv solver (256): 495 ms
Result is ok!
Time taken by Lapacke dgesv (512): 13 ms
Time taken by my dgesv solver (512): 9153 ms
Result is ok!
############################
############################
# GCC non-optimized
Using OpenBLAS
rm -f dgesv *.o *~
Using OpenBLAS
OPENMP enabled
gcc -march=native -mtune=native -O3 -DCC_OPT -DFUNC_OPT -DOPENBLAS -fopenmp -DOMP_OPT   -c -o dgesv.o dgesv.c
gcc -march=native -mtune=native -O3 -DCC_OPT -DFUNC_OPT -DOPENBLAS -fopenmp -DOMP_OPT   -c -o timer.o timer.c
gcc -march=native -mtune=native -O3 -DCC_OPT -DFUNC_OPT -DOPENBLAS -fopenmp -DOMP_OPT   -c -o main.o main.c
gcc -march=native -mtune=native -O3 -DCC_OPT -DFUNC_OPT -DOPENBLAS -fopenmp -DOMP_OPT -o dgesv dgesv.o timer.o main.o -lopenblas
Time taken by Lapacke dgesv (32): 1 ms
Time taken by my dgesv solver (32): 141 ms
Result is ok!
Time taken by Lapacke dgesv (64): 0 ms
Time taken by my dgesv solver (64): 181 ms
Result is ok!
Time taken by Lapacke dgesv (128): 2 ms
Time taken by my dgesv solver (128): 355 ms
Result is ok!
Time taken by Lapacke dgesv (256): 7 ms
Time taken by my dgesv solver (256): 1904 ms
Result is ok!
Time taken by Lapacke dgesv (512): 130 ms
Time taken by my dgesv solver (512): 15808 ms
Result is ok!
############################
############################
# ICX non-optimized
Using OpenBLAS
rm -f dgesv *.o *~
Using Intel MKL
OPENMP enabled
icx -march=native -mtune=native -O3 -DCC_OPT -DFUNC_OPT -DIMKL -fopenmp -DOMP_OPT   -c -o dgesv.o dgesv.c
icx -march=native -mtune=native -O3 -DCC_OPT -DFUNC_OPT -DIMKL -fopenmp -DOMP_OPT   -c -o timer.o timer.c
icx -march=native -mtune=native -O3 -DCC_OPT -DFUNC_OPT -DIMKL -fopenmp -DOMP_OPT   -c -o main.o main.c
icx -march=native -mtune=native -O3 -DCC_OPT -DFUNC_OPT -DIMKL -fopenmp -DOMP_OPT -o dgesv dgesv.o timer.o main.o -qmkl=sequential -lmkl_intel_lp64
Time taken by Lapacke dgesv (32): 2 ms
Time taken by my dgesv solver (32): 200 ms
Result is ok!
Time taken by Lapacke dgesv (64): 3 ms
Time taken by my dgesv solver (64): 501 ms
Result is ok!
Time taken by Lapacke dgesv (128): 3 ms
Time taken by my dgesv solver (128): 2178 ms
Result is ok!
Time taken by Lapacke dgesv (256): 5 ms
Time taken by my dgesv solver (256): 3394 ms
Result is ok!
Time taken by Lapacke dgesv (512): 14 ms
Time taken by my dgesv solver (512): 13950 ms
Result is ok!
############################

*****************************************************************************
*                                                                           *
*                    JOB EFFICIENCY REPORT (seff 5391432)                   *
*                                                                           *
*****************************************************************************

Job ID: 5391432
Cluster: finisterrae3
User/Group: curso354/ulc
State: COMPLETED (exit code 0)
Nodes: 1
Cores per node: 32
CPU Utilized: 00:19:24
CPU Efficiency: 11.02% of 02:56:00 core-walltime
Job Wall-clock time: 00:05:30
Memory Utilized: 91.73 MB
Memory Efficiency: 4.48% of 2.00 GB

 +++++++++++++++++++++++++++++++++++++++++++++++++++++++++++++++++++++++++++
 ++   Memory Efficiency is too small. Please review the requested memory. ++
 ++ It seems that you do not need that much memory so we recommend        ++
 ++ requesting less memory in other similar jobs.                         ++
 +++++++++++++++++++++++++++++++++++++++++++++++++++++++++++++++++++++++++++
 
*****************************************************************************

